Initialization of indicator-pressure models — ind_init • INDperform
…
    Examples

# Using the Baltic Sea demo data in this package
press_tbl <- press_ex[ ,-1] # excl. Year
ind_tbl <- ind_ex[ ,-1] # excl. Year
time <- ind_ex[ ,1]
# Assign randomly 50% of the observations as training data and
# the other 50% as test data
ind_init(ind_tbl, press_tbl, time, train = 0.5, random = TRUE)
#> # A tibble: 84 x 10
#>       id ind   press ind_train press_train time_train ind_test press_test
#>    <int> <chr> <chr> <list>    <list>      <list>     <list>   <list>    
#>  1     1 TZA   Tsum  <dbl [15… <dbl [15]>  <int [15]> <dbl [1… <dbl [15]>
#>  2     2 TZA   Swin  <dbl [15… <dbl [15]>  <int [15]> <dbl [1… <dbl [15]>
#>  3     3 TZA   Pwin  <dbl [15… <dbl [15]>  <int [15]> <dbl [1… <dbl [15]>
#>  4     4 TZA   Nwin  <dbl [15… <dbl [15]>  <int [15]> <dbl [1… <dbl [15]>
#>  5     5 TZA   Fspr… <dbl [15… <dbl [15]>  <int [15]> <dbl [1… <dbl [15]>
#>  6     6 TZA   Fher  <dbl [15… <dbl [15]>  <int [15]> <dbl [1… <dbl [15]>
#>  7     7 TZA   Fcod  <dbl [15… <dbl [15]>  <int [15]> <dbl [1… <dbl [15]>
#>  8     8 MS    Tsum  <dbl [15… <dbl [15]>  <int [15]> <dbl [1… <dbl [15]>
#>  9     9 MS    Swin  <dbl [15… <dbl [15]>  <int [15]> <dbl [1… <dbl [15]>
#> 10    10 MS    Pwin  <dbl [15… <dbl [15]>  <int [15]> <dbl [1… <dbl [15]>
#> # … with 74 more rows, and 2 more variables: time_test <list>, train_na <list>
…
