Modeling of indicator responses to single pressures with GAMs — model_gam • INDperform
…
#> [[7]]
#> 1991 
#>   13 
#> 
#> [[8]]
#> 2000 
#>   22 
#> 
# Exclude outliers by passing this list as input:
gam_tbl_out <- model_gam(dat_init, excl_outlier = gam_tbl$pres_outlier)
 # Using another error distribution
 ind_sub <- round(exp(ind_ex[ ,c(2,8,9)]),0) # to unlog data and convert to integers
 ind_tbl2 <- ind_init(ind_sub, press_ex, time = ind_ex$Year)
 model_gam(ind_tbl2, family = poisson(link="log"))
#> # A tibble: 24 x 16
#>       id ind   press model_type corrstruc    aic   edf p_val signif_code    r_sq
#>    <int> <chr> <chr> <chr>      <chr>      <dbl> <dbl> <dbl> <chr>         <dbl>
#>  1     1 TZA   Year  gam        none      1.12e5  4.00     0 ***          0.427 
#>  2     2 TZA   Tsum  gam        none      1.66e5  3.99     0 ***          0.256 
#>  3     3 TZA   Swin  gam        none      1.55e5  4.00     0 ***          0.237 
#>  4     4 TZA   Pwin  gam        none      2.28e5  3.96     0 ***         -0.113 
#>  5     5 TZA   Nwin  gam        none      1.89e5  4.00     0 ***          0.0710
#>  6     6 TZA   Fspr… gam        none      9.62e4  4.00     0 ***          0.547 
#>  7     7 TZA   Fher  gam        none      1.45e5  3.99     0 ***          0.283 
#>  8     8 TZA   Fcod  gam        none      1.80e5  3.98     0 ***          0.0747
#>  9     9 Sprat Year  gam        none      8.81e4  3.99     0 ***          0.516 
#> 10    10 Sprat Tsum  gam        none      1.75e5  3.99     0 ***         -0.0198
#> # … with 14 more rows, and 6 more variables: expl_dev <dbl>, nrmse <dbl>,
#> #   ks_test <dbl>, tac <lgl>, pres_outlier <list>, model <list>
…
