Compute (partial) autocorrelation functions and test for significance — test_tac • INDperform
…
    See also

    model_gam, model_gamm,
plot_diagnostics

    Examples

# Using models of the Baltic Sea demo data:
# Get model residuals of GAMs
model_resid <- purrr::map(model_gam_ex$model,
  ~mgcv::residuals.gam(., type = "deviance"))
# test whether model residuals show significant TAC
test_tac(model_resid)
#> # A tibble: 84 x 3
#>    acf        pacf       tac  
#>    <list>     <list>     <lgl>
#>  1 <dbl [15]> <dbl [14]> FALSE
#>  2 <dbl [15]> <dbl [14]> FALSE
#>  3 <dbl [15]> <dbl [14]> FALSE
#>  4 <dbl [15]> <dbl [14]> FALSE
#>  5 <dbl [15]> <dbl [14]> FALSE
#>  6 <dbl [15]> <dbl [14]> FALSE
#>  7 <dbl [15]> <dbl [14]> FALSE
#>  8 <dbl [15]> <dbl [14]> FALSE
#>  9 <dbl [15]> <dbl [14]> FALSE
#> 10 <dbl [15]> <dbl [14]> FALSE
#> # … with 74 more rows
…
